{
	"pages": [{
			"path": "pages/index/index",
			"style": {
				"navigationStyle": "custom",
				"enablePullDownRefresh": true
			}
		},
		{
			"path": "pages/post/post",
			"style": {
				"navigationStyle": "custom",
				"titleNView": false
			}
		},
		{
			"path": "pages/topicinfo/topicinfo",
			"style": {
				"navigationBarTitleText": "话题详情",
				"enablePullDownRefresh": true
			}
		},
		{
			"path": "pages/login/login",
			"style": {
				"navigationBarTitleText": "",
				"transparentTitle": "none"
			}
		}, {
			"path": "pages/my/my",
			"style": {
				"navigationStyle": "custom",
				"transparentTitle": "always",
				"titleNView": false
			}
		}, {
			"path": "pages/article/article",
			"style": {
				"navigationBarTitleText": "资讯详情",
				"transparentTitle": "none"
			}
		}, {
			"path": "pages/articlelist/articlelist",
			"style": {
				"navigationBarTitleText": "资讯",
				"enablePullDownRefresh": true
			}
		}, {
			"path": "pages/articleimg/articleimg",
			"style": {
				"navigationBarTitleText": "图集详情",
				"transparentTitle": "none"
			}
		}, {
			"path": "pages/articleinfo/articleinfo",
			"style": {
				"navigationBarTitleText": "帖子详情",
				"enablePullDownRefresh": false
			}

		}, {
			"path": "pages/commentpost/commentpost",
			"style": {
				"navigationBarTitleText": "评论",
				"enablePullDownRefresh": false
			}
		}, {
			"path": "pages/signin/signin/signin",
			"style": {
				"navigationStyle": "custom",
				"transparentTitle": "always",
				"titleNView": false
			}
		}, {
			"path": "pages/signin/mapactivein/mapactivein",
			"style": {
				"navigationBarTitleText": "活动招募",
				"enablePullDownRefresh": false
			}
		}, {
			"path": "pages/signin/mapactiveform/mapactiveform",
			"style": {
				"navigationBarTitleText": "活动招募",
				"enablePullDownRefresh": false
			}
		}, {
			"path": "pages/signin/qrcode/qrcode",
			"style": {
				"navigationBarTitleText": "我的凭证",
				"enablePullDownRefresh": false
			}

		},
		{
			"path": "pages/signin/mapactiveaudit/mapactiveaudit",
			"style": {
				"navigationBarTitleText": "活动招募",
				"enablePullDownRefresh": false
			}
		}, {
			"path": "pages/approve/invitein/invitein",
			"style": {
				"navigationBarTitleText": "影响力认证",
				"enablePullDownRefresh": false
			}

		}, {
			"path": "pages/approve/invite/invite",
			"style": {
				"navigationBarTitleText": "影响力认证",
				"enablePullDownRefresh": false
			}

		}, {
			"path": "pages/approve/inviteaudit/inviteaudit",
			"style": {
				"navigationBarTitleText": "影响力认证",
				"enablePullDownRefresh": false
			}

		}, {
			"path": "pages/motormaster/motormaster",
			"style": {
				"navigationBarTitleText": "车主认证",
				"enablePullDownRefresh": false
			}

		}, {
			"path": "pages/carbands/carbands",
			"style": {
				"navigationBarTitleText": "选择品牌",
				"enablePullDownRefresh": false
			}

		}, {
			"path": "pages/carlist/carlist",
			"style": {
				"navigationBarTitleText": "选择车系",
				"enablePullDownRefresh": false
			}

		}, {
			"path": "pages/models/models",
			"style": {
				"navigationBarTitleText": "选择车型",
				"enablePullDownRefresh": false
			}

		}, {
			"path": "pages/carsinfo/carsinfo",
			"style": {
				"navigationBarTitleText": "认证信息",
				"enablePullDownRefresh": false
			}

		}, {
			"path": "pages/webview/webview",
			"style": {
				"navigationBarTitleText": "",
				"enablePullDownRefresh": false
			}

		}, {
			"path": "pages/caraudit/caraudit",
			"style": {
				"navigationStyle": "custom",
				"transparentTitle": "always",
				"titleNView": false
			}

		}, {
			"path": "pages/live/live",
			"style": {
				"navigationBarTitleText": "",
				"enablePullDownRefresh": false
			}

		}, {
			"path": "pages/questionnaire/questionnaire",
			"style": {
				"navigationBarTitleText": "",
				"enablePullDownRefresh": false
			}

		}, {
			"path": "pages/questionnaireok/questionnaireok",
			"style": {
				"navigationBarTitleText": "",
				"enablePullDownRefresh": false
			}

		}, {
			"path": "pages/error/error",
			"style": {
				"navigationBarTitleText": "",
				"enablePullDownRefresh": false
			}

		}, {
			"path": "pages/memberinfo/memberinfo",
			"style": {
				"navigationBarTitleText": "用户信息",
				"enablePullDownRefresh": false
			}

		}, {
			"path": "pages/goodsinfo/goodsinfo",
			"style": {
				"navigationBarTitleText": "商品详情",
				"enablePullDownRefresh": false
			}

		}, {
			"path": "pages/mycollect/mycollect",
			"style": {
				"navigationBarTitleText": "我的收藏",
				"enablePullDownRefresh": true
			}

		}, {
			"path": "pages/mymessage/mymessage",
			"style": {
				"navigationBarTitleText": "我的消息",
				"enablePullDownRefresh": true
			}

		}, {
			"path": "pages/mypost/mypost",
			"style": {
				"navigationBarTitleText": "我的帖子",
				"enablePullDownRefresh": true
			}

		}, {
			"path": "pages/commentinfo/commentinfo",
			"style": {
				"navigationBarTitleText": "评论详情",
				"enablePullDownRefresh": true
			}

		}, {
			"path": "pages/integral/integral",
			"style": {
				"navigationBarTitleText": "积分兑换",
				"enablePullDownRefresh": true
			}

		}, {
			"path": "pages/integral/integralinfo/integralinfo",
			"style": {
				"navigationBarTitleText": "商品详情",
				"enablePullDownRefresh": false
			}

		}, {
			"path": "pages/integral/integralorder/integralorder",
			"style": {
				"navigationBarTitleText": "提交订单",
				"enablePullDownRefresh": false
			}

		}, {
			"path": "pages/myintegral/myintegral",
			"style": {
				"navigationBarTitleText": "我的积分",
				"enablePullDownRefresh": true
			}

		}, {
			"path": "pages/accountsafe/accountsafe",
			"style": {
				"navigationBarTitleText": "账号安全",
				"enablePullDownRefresh": false
			}

		}, {
			"path": "pages/mobileinfo/mobileinfo",
			"style": {
				"navigationBarTitleText": "绑定手机号",
				"enablePullDownRefresh": false
			}
		}, {
			"path": "pages/forum/forum",
			"style": {
				"navigationBarTitleText": "汽车时间",
				"enablePullDownRefresh": false
			}

		}, {
			"path": "pages/webpage/webpage",
			"style": {
				"navigationBarTitleText": "",
				"enablePullDownRefresh": false
			}

		}, {
			"path": "pages/imageComment/imageComment",
			"style": {
				"navigationBarTitleText": "图集评论",
				"enablePullDownRefresh": false
			}

		}, {
			"path": "pages/bindingmobile/bindingmobile",
			"style": {
				"navigationStyle": "custom"
			}

		}, {
			"path": "pages/myactive/myactive",
			"style": {
				"navigationBarTitleText": "我的活动",
				"enablePullDownRefresh": true
			}

		}, {
			"path": "pages/jxactive/activeqr/activeqr",
			"style": {
				"navigationBarTitleText": "我的凭证",
				"enablePullDownRefresh": false
			}

		}, {
			"path": "pages/jxactive/activein/activein",
			"style": {
				"navigationStyle": "custom"
			}

		}, {
			"path": "pages/jxactive/activecar/activecar",
			"style": {
				"navigationBarTitleText": "选择车系",
				"enablePullDownRefresh": false
			}
		}, {
			"path": "pages/searchlist/searchlist",
			"style": {
				"navigationStyle": "custom",
				"enablePullDownRefresh": false
			}
		}, {
			"path": "pages/appsearch/appsearch",
			"style": {
				"navigationStyle": "custom",
				"enablePullDownRefresh": true
			}
		}, {
			"path": "pages/question/index/index",
			"style": {
				"navigationBarTitleText": "问答",
				"enablePullDownRefresh": true
			}

		}, {
			"path": "pages/question/queschannel/queschannel",
			"style": {
				"navigationBarTitleText": "问答频道",
				"enablePullDownRefresh": false
			}

		}, {
			"path": "pages/question/quesinfo/quesinfo",
			"style": {
				"navigationBarTitleText": "问题详情",
				"enablePullDownRefresh": false
			}

		}, {
			"path": "pages/question/askinfo/askinfo",
			"style": {
				"navigationBarTitleText": "答案详情",
				"enablePullDownRefresh": true
			}

		}, {
			"path": "pages/question/post/post",
			"style": {
				"navigationStyle": "custom",
				"enablePullDownRefresh": false
			}

		}, {
			"path": "pages/question/postanswer/postanswer",
			"style": {
				"navigationStyle": "custom",
				"enablePullDownRefresh": false
			}

		}, {
			"path": "pages/question/questype/questype",
			"style": {
				"navigationBarTitleText": "问答类型",
				"enablePullDownRefresh": false
			}

		}, {
			"path": "pages/question/postcomment/postcomment",
			"style": {
				"navigationBarTitleText": "评论",
				"enablePullDownRefresh": false
			}

		}, {
			"path": "pages/question/commentinfo/commentinfo",
			"style": {
				"navigationBarTitleText": "评论详情",
				"enablePullDownRefresh": true
			}

		}, {
			"path": "pages/bbs/bbs",
			"style": {
				"navigationBarTitleText": "社区",
				"enablePullDownRefresh": true
			}

		}, {
			"path": "pages/topic/topic",
			"style": {
				"navigationBarTitleText": "话题",
				"enablePullDownRefresh": false
			}

		}, {
			"path": "pages/topicadd/topicadd",
			"style": {
				"navigationBarTitleText": "创建话题",
				"enablePullDownRefresh": false
			}

		}, {
			"path": "pages/topicdel/topicdel",
			"style": {
				"navigationBarTitleText": "话题",
				"enablePullDownRefresh": false
			}

		}, {
			"path": "pages/other/other",
			"style": {
				"navigationBarTitleText": "",
				"enablePullDownRefresh": false
			}

		}, {
			"path": "pages/otherfollow/otherfollow",
			"style": {
				"navigationBarTitleText": "",
				"enablePullDownRefresh": true
			}

		}, {
			"path": "pages/shop/shop",
			"style": {
				"navigationBarTitleText": "商城",
				"enablePullDownRefresh": true
			}

		}, {
			"path": "pages/shop/goodslist/goodslist",
			"style": {
				"navigationStyle": "custom",
				"enablePullDownRefresh": true
			}

		}, {
			"path": "pages/shop/goodscarts/goodscarts",
			"style": {
				"navigationBarTitleText": "购物车",
				"enablePullDownRefresh": true
			}

		}, {
			"path": "pages/shop/goodsorder/goodsorder",
			"style": {
				"navigationBarTitleText": "提交订单",
				"enablePullDownRefresh": false
			}

		}, {
			"path": "pages/shop/editaddress/editaddress",
			"style": {
				"navigationBarTitleText": "",
				"enablePullDownRefresh": false
			}

		}, {
			"path": "pages/shop/addresslist/addresslist",
			"style": {
				"navigationBarTitleText": "收货地址",
				"enablePullDownRefresh": false,
				"app-plus": {
					"bounce": "none"
				}
			}

		}, {
			"path": "pages/shop/goodspay/goodspay",
			"style": {
				"navigationBarTitleText": "收银台",
				"enablePullDownRefresh": false
			}

		}, {
			"path": "pages/shop/paysuccess/paysuccess",
			"style": {
				"navigationBarTitleText": "支付成功",
				"enablePullDownRefresh": false
			}

		}, {
			"path": "pages/shop/orderinfo/orderinfo",
			"style": {
				"navigationBarTitleText": "订单详情",
				"enablePullDownRefresh": false
			}

		}, {
			"path": "pages/shop/orderlist/orderlist",
			"style": {
				"navigationBarTitleText": "订单列表",
				"enablePullDownRefresh": true
			}

		}, {
			"path": "pages/shop/classification/classification",
			"style": {
				"navigationBarTitleText": "商品分类",
				"enablePullDownRefresh": false
			}

		}, {
			"path": "pages/praiselog/praiselog",
			"style": {
				"navigationBarTitleText": "",
				"enablePullDownRefresh": false
			}

		}, {
			"path": "pages/myquestion/myquestion",
			"style": {
				"navigationBarTitleText": "我的问答",
				"enablePullDownRefresh": true
			}

		}, {
			"path": "pages/articlenew/articlenew",
			"style": {
				"navigationBarTitleText": "详情",
				"enablePullDownRefresh": false
			}

		}, {
			"path": "pages/bandindex/bandindex",
			"style": {
				"navigationBarTitleText": "",
				"enablePullDownRefresh": false
			}

		}, {
			"path": "pages/memberinit/memberinit",
			"style": {
				"navigationBarTitleText": "修改头像",
				"enablePullDownRefresh": false
			}

		}, {
			"path": "pages/shop/salesclerk/salesclerk",
			"style": {
				"navigationBarTitleText": "",
				"enablePullDownRefresh": false
			}

		}, {
			"path": "pages/shop/salesclerkresult/salesclerkresult",
			"style": {
				"navigationBarTitleText": "",
				"enablePullDownRefresh": false
			}

		}, {
			"path": "pages/shop/mysales/mysales",
			"style": {
				"navigationStyle": "custom",
				"enablePullDownRefresh": false
			}

		}, {
			"path": "pages/shop/mysaleslist/mysaleslist",
			"style": {
				"navigationBarTitleText": "带货商品列表",
				"enablePullDownRefresh": false
			}

		}, {
			"path": "pages/shop/salesorder/salesorder",
			"style": {
				"navigationBarTitleText": "全部订单明细",
				"enablePullDownRefresh": false
			}

		}, {
			"path": "pages/shop/salesshare/salesshare",
			"style": {
				"navigationBarTitleText": "分享",
				"enablePullDownRefresh": false
			}

		}, {
			"path": "pages/shop/salescash/salescash",
			"style": {
				"navigationBarTitleText": "提现",
				"enablePullDownRefresh": false
			}

		}, {
			"path": "pages/shop/salescashrecord/salescashrecord",
			"style": {
				"navigationBarTitleText": "提现记录",
				"enablePullDownRefresh": false
			}

		}, {
			"path": "pages/shop/salescashresult/salescashresult",
			"style": {
				"navigationBarTitleText": "提现",
				"enablePullDownRefresh": false
			}

		}
	    ,{
            "path" : "pages/shop/salestext/salestext",
            "style" :                                                                                    
            {
                "navigationBarTitleText": "说明",
                "enablePullDownRefresh": false
            }
            
        }
        ,{
            "path" : "pages/shop/logistics/logistics",
            "style" :                                                                                    
            {
                "navigationBarTitleText": "",
                "enablePullDownRefresh": false
            }
            
        }
        ,{
            "path" : "pages/shop/salesbankcard/salesbankcard",
            "style" :                                                                                    
            {
                "navigationBarTitleText": "绑卡",
                "enablePullDownRefresh": false
            }
            
        }
    ],
	"globalStyle": {
		"navigationBarTextStyle": "black",
		"navigationBarTitleText": "",
		"navigationBarBackgroundColor": "#FFFFFF",
		"backgroundColor": "#FFFFFF",
		"app-plus": {
			"background": "#efeff4"
		}
	},
	"tabBar": {
		"selectedColor": "#231815",
		"color": "#9A9A9A",
		"backgroundColor": "#ffffff",
		"borderStyle": "black",
		"list": [{
				"pagePath": "pages/index/index",
				"text": "首页",
				"iconPath": "/static/images/icon/index.png",
				"selectedIconPath": "/static/images/icon/index_select.png"
			},
			// {
			// 	"pagePath": "pages/bbs/bbs",
			// 	"text": "社区",
			// 	"iconPath": "/static/images/icon/groups.png",
			// 	"selectedIconPath": "/static/images/icon/groups_select.png"
			// },
			// {
			// 	"pagePath": "pages/question/index/index",
			// 	"text": "问答",
			// 	"iconPath": "/static/images/icon/question.png",
			// 	"selectedIconPath": "/static/images/icon/question_select.png"
			// },
			{
				"pagePath": "pages/shop/shop",
				"text": "商城",
				"iconPath": "/static/images/icon/shop.png",
				"selectedIconPath": "/static/images/icon/shop_select.png"
			},
			{
				"pagePath": "pages/my/my",
				"text": "我的",
				"iconPath": "/static/images/icon/my.png",
				"selectedIconPath": "/static/images/icon/my_select.png"
			}
		]
	},
	"condition": { //模式配置，仅开发期间生效
		"current": 0, //当前激活的模式(list 的索引项)
		"list": [{
			"name": "", //模式名称
			"path": "pages/index/index", //启动页面，必选
			"query": "" //启动参数，在页面的onLoad函数里面得到
		}]
	},
	"permission": {
		"scope.userFuzzyLocation": {
			"desc": "你的位置信息将用于小程序位置接口的效果展示"
		}
	},
	"requiredPrivateInfos": [
		"getFuzzyLocation"
	]

}